<svg xmlns="http://www.w3.org/2000/svg" width="48.94" height="142" viewBox="0 0 48.94 142">
  <defs>
    <style>
      .cls-1 {
        fill: none;
        stroke: #cecece;
        stroke-width: 1px;
        fill-rule: evenodd;
        opacity: 0.45;
      }
    </style>
  </defs>
  <path id="Shape_1_копия" data-name="Shape 1 копия" class="cls-1" d="M1114.44,3530.99s-105.97-62.4-1.14-140.99" transform="translate(-1066.5 -3389.5)"/>
</svg>
